@relation 8

@attribute 1 {-1,10003,10004}
@attribute 2 {-2,20003,20006,20008,20009,20010,20011,20012,20014,20015,20016,20017,20018,20019,20020,20021,20022}
@attribute 3 {-3,30003,30004,30005,30007,30008,30009,30010,30011,30012,30013,30014,30015,30016}
@attribute 4 {-4,40003,40004,40006,40007,40008,40010}
@attribute 5 {-5,50003,50004}
@attribute 6 {-6,60003,60004,60005,60007,60008,60009,60010,60011,60012}
@attribute 7 {-7,70003,70005,70006,70008,70009,70010,70011}
@attribute 8 {-8,80003,80004}
@attribute 9 {-9,90003,90004,90005,90006,90007,90008,90009,90010,90011,90012,90013,90014,90015,90016,90017,90018,90019,90020,90021,90022}
@attribute 10 {-10,100003,100004,100005,100006,100007,100008,100009}
@attribute 11 {-11,110003,110004,110005,110006,110007,110008}
@attribute 12 {-12,120003,120004,120006,120007,120008,120009,120010,120011,120012,120013,120014,120015,120016,120017,120018,120019,120020,120021,120022,120023}
@attribute 13 {-13,130003}
@attribute 14 {-14,140003,140004,140005,140006,140007,140008,140009,140010}
@attribute 15 {-15,150003,150004,150005}
@attribute 16 {-16,160003}
@attribute 17 {-17,170003,170004}
@attribute label {48,50,52}

@data
10003,20018,30014,-4,-5,60004,-7,80004,-9,-10,-11,-12,-13,-14,-15,-16,-17,48
10004,20018,30016,-4,-5,60011,-7,-8,-9,-10,-11,-12,-13,-14,-15,160003,-17,48
10004,20018,30016,-4,-5,60008,-7,-8,-9,-10,-11,-12,-13,-14,-15,160003,-17,48
10004,20010,30016,-4,-5,60007,-7,-8,-9,-10,-11,-12,-13,-14,-15,-16,-17,48
10004,20018,30016,-4,-5,60003,-7,-8,-9,-10,-11,-12,-13,-14,150004,160003,170004,48
10004,20018,30016,-4,-5,60003,-7,80004,-9,-10,-11,-12,-13,-14,150005,160003,-17,48
10004,20014,30007,-4,-5,60011,-7,80003,-9,-10,-11,-12,-13,-14,-15,-16,170003,48
10004,20018,30016,-4,-5,60003,-7,-8,-9,-10,-11,-12,-13,-14,150004,160003,-17,48
10004,20018,30016,-4,-5,60003,-7,-8,-9,-10,-11,-12,-13,-14,-15,-16,-17,48
10004,20018,30016,-4,-5,60010,-7,-8,-9,-10,-11,-12,-13,-14,-15,160003,-17,48
10004,20018,30016,-4,-5,60003,-7,-8,-9,-10,-11,-12,-13,-14,-15,160003,170003,48
10004,20016,30008,-4,-5,60003,-7,-8,-9,-10,-11,-12,-13,-14,150004,-16,-17,48
-1,20018,30005,-4,-5,60003,-7,-8,-9,-10,-11,-12,-13,-14,150003,-16,170004,48
-1,20017,30016,-4,-5,60003,-7,-8,-9,-10,-11,-12,-13,-14,-15,-16,170004,48
10004,20018,30016,-4,-5,60003,-7,-8,-9,-10,-11,-12,-13,-14,-15,-16,-17,48
10004,20018,30003,-4,-5,60003,-7,-8,-9,-10,-11,-12,-13,-14,150004,160003,170003,48
10004,20018,30016,-4,-5,60003,-7,-8,-9,-10,-11,-12,-13,-14,150003,-16,170003,48
10004,20018,30008,-4,-5,60003,-7,-8,-9,-10,-11,-12,-13,-14,-15,-16,170003,48
10004,20018,30016,-4,-5,60003,-7,80004,-9,-10,-11,-12,-13,-14,-15,-16,-17,48
10003,-2,30016,-4,-5,60008,-7,-8,-9,-10,-11,-12,-13,-14,150003,-16,-17,48
-1,20018,30016,-4,-5,60003,-7,-8,-9,-10,-11,-12,-13,-14,150005,-16,-17,48
-1,20018,30016,-4,-5,60009,-7,-8,-9,-10,-11,-12,-13,-14,150004,-16,170004,48
10004,20012,30016,-4,-5,-6,-7,-8,-9,-10,-11,-12,-13,-14,150004,-16,-17,48
-1,20019,30016,-4,-5,60009,-7,-8,-9,-10,-11,-12,-13,-14,-15,-16,-17,48
10004,20011,30010,-4,-5,60010,-7,-8,-9,-10,-11,-12,-13,-14,-15,160003,-17,48
10004,-2,30016,-4,-5,60009,-7,80004,-9,-10,-11,-12,-13,-14,-15,-16,-17,48
10004,20022,30016,-4,-5,60012,-7,-8,-9,-10,-11,-12,-13,-14,-15,-16,-17,48
10004,20021,30016,-4,-5,60003,-7,-8,-9,-10,-11,-12,-13,-14,-15,160003,-17,48
10004,20018,30005,-4,-5,60004,-7,-8,-9,-10,-11,-12,-13,-14,150005,-16,-17,48
10004,20018,30016,-4,-5,60003,-7,-8,-9,-10,-11,-12,-13,-14,150003,-16,-17,48
10004,20018,30016,-4,-5,60011,-7,-8,-9,-10,-11,-12,-13,-14,150005,-16,-17,48
10004,20018,30016,-4,-5,60003,-7,-8,-9,-10,-11,-12,-13,-14,150004,-16,170004,48
10004,20016,30016,-4,-5,60003,-7,-8,-9,-10,-11,-12,-13,-14,-15,160003,170003,48
-1,20018,30004,-4,-5,60012,-7,-8,-9,-10,-11,-12,-13,-14,-15,-16,-17,48
10004,20018,30004,-4,-5,60003,-7,-8,-9,-10,-11,-12,-13,-14,-15,-16,-17,48
10004,20022,30016,-4,-5,60009,-7,-8,-9,-10,-11,-12,-13,-14,150004,-16,170004,48
10004,20018,30014,-4,-5,60003,-7,-8,-9,-10,-11,-12,-13,-14,-15,-16,-17,48
10004,20018,30016,-4,-5,60003,-7,-8,-9,-10,-11,-12,-13,-14,-15,-16,170003,48
10004,20008,30016,-4,-5,60003,-7,80003,-9,-10,-11,-12,-13,-14,-15,-16,170004,48
10004,20018,30016,-4,-5,60007,-7,-8,-9,-10,-11,-12,-13,-14,-15,-16,-17,48
10004,20018,30016,-4,-5,60003,-7,-8,-9,-10,-11,-12,-13,-14,150005,-16,-17,48
10004,20018,30016,-4,-5,60003,-7,-8,-9,-10,-11,-12,-13,-14,-15,-16,170004,48
-1,20018,30016,-4,-5,60003,-7,-8,-9,-10,-11,-12,-13,-14,150005,-16,-17,48
10003,-2,30016,-4,-5,60007,-7,-8,-9,-10,-11,-12,-13,-14,150005,160003,-17,48
10004,20018,30016,-4,-5,60008,-7,-8,-9,-10,-11,-12,-13,-14,-15,160003,-17,48
10004,20018,30016,-4,-5,60004,-7,-8,-9,-10,-11,-12,-13,-14,150004,-16,-17,48
10004,20018,30016,-4,-5,-6,-7,-8,-9,-10,-11,-12,-13,-14,150005,160003,-17,48
10004,20010,30016,-4,-5,60012,-7,-8,-9,-10,-11,-12,-13,-14,150004,-16,-17,48
10004,20018,30005,-4,-5,60007,-7,-8,-9,-10,-11,-12,-13,-14,-15,-16,-17,48
10004,20016,30015,-4,-5,60007,-7,80004,-9,-10,-11,-12,-13,-14,150003,-16,170003,48
-1,-2,-3,40007,-5,-6,-7,80003,90020,-10,-11,-12,-13,-14,-15,160003,170004,50
-1,-2,30016,40007,-5,60003,-7,-8,90020,-10,-11,-12,-13,-14,-15,-16,-17,50
10003,-2,-3,40007,-5,60003,-7,80003,90020,-10,-11,-12,-13,-14,150003,160003,-17,50
10003,-2,-3,40007,-5,60003,-7,80004,90020,-10,-11,-12,-13,-14,-15,160003,-17,50
10003,-2,-3,40007,-5,60009,-7,-8,90020,-10,-11,-12,-13,-14,-15,-16,170003,50
10003,-2,-3,40007,-5,60009,-7,-8,90020,-10,-11,-12,-13,-14,150004,-16,-17,50
10003,20017,-3,40007,-5,-6,-7,-8,90020,-10,-11,-12,-13,-14,-15,-16,-17,50
10003,-2,-3,40007,-5,60003,-7,-8,90020,-10,-11,-12,-13,-14,-15,-16,-17,50
-1,-2,-3,40007,-5,60007,-7,-8,90020,-10,-11,-12,-13,-14,-15,-16,-17,50
10003,20022,30007,40007,-5,60003,-7,80004,90020,-10,-11,-12,-13,-14,-15,-16,-17,50
10004,-2,-3,40007,-5,60003,-7,-8,90020,-10,-11,-12,-13,-14,-15,-16,-17,50
10003,-2,-3,40007,-5,60003,-7,-8,90020,-10,-11,-12,-13,-14,-15,-16,170003,50
-1,-2,-3,40007,-5,60007,-7,80004,90020,-10,-11,-12,-13,-14,-15,-16,-17,50
10003,-2,30005,40007,-5,60003,-7,80003,90020,-10,-11,-12,-13,-14,-15,-16,170003,50
10003,20018,-3,40007,-5,60003,-7,-8,90020,-10,-11,-12,-13,-14,-15,-16,170003,50
10003,-2,-3,40007,-5,60008,-7,-8,90020,-10,-11,-12,-13,-14,-15,-16,-17,50
10004,-2,-3,40007,-5,60004,-7,80004,90020,-10,-11,-12,-13,-14,-15,-16,-17,50
10003,20021,-3,40007,-5,60005,-7,-8,90020,-10,-11,-12,-13,-14,150003,-16,170004,50
10003,-2,-3,40007,-5,60003,-7,80004,90020,-10,-11,-12,-13,-14,150003,-16,-17,50
10003,-2,30009,40007,-5,60007,-7,-8,90020,-10,-11,-12,-13,-14,150004,-16,-17,50
10003,20010,-3,40007,-5,60003,-7,-8,90020,-10,-11,-12,-13,-14,150003,-16,-17,50
-1,-2,30011,40007,-5,60012,-7,-8,90020,-10,-11,-12,-13,-14,-15,-16,170004,50
10003,20014,-3,40007,-5,-6,-7,-8,90020,-10,-11,-12,-13,-14,150005,-16,-17,50
10003,20015,30009,40007,-5,60003,-7,80004,90020,-10,-11,-12,-13,-14,150003,160003,-17,50
10003,20009,30016,40007,-5,60011,-7,-8,90020,-10,-11,-12,-13,-14,-15,-16,-17,50
10003,20022,-3,40007,-5,60010,-7,-8,90020,-10,-11,-12,-13,-14,-15,160003,170004,50
10003,-2,-3,40007,-5,60004,-7,-8,90020,-10,-11,-12,-13,-14,-15,160003,-17,50
10004,-2,-3,40007,-5,60003,-7,-8,90020,-10,-11,-12,-13,-14,150005,-16,-17,50
-1,-2,-3,40007,-5,60005,-7,-8,90020,-10,-11,-12,-13,-14,-15,-16,-17,50
10003,-2,-3,40007,-5,60005,-7,-8,90020,-10,-11,-12,-13,-14,150003,160003,-17,50
10003,-2,30016,40007,-5,60003,-7,-8,90020,-10,-11,-12,-13,-14,-15,160003,-17,50
10003,-2,30013,40007,-5,60008,-7,-8,90020,-10,-11,-12,-13,-14,150004,-16,-17,50
10003,20019,-3,40007,-5,60007,-7,-8,90020,-10,-11,-12,-13,-14,150004,160003,-17,50
10003,-2,-3,40007,-5,60004,-7,-8,90020,-10,-11,-12,-13,-14,150003,-16,-17,50
10004,-2,-3,40007,-5,60003,-7,-8,90020,-10,-11,-12,-13,-14,150005,-16,-17,50
10003,-2,-3,40007,-5,60004,-7,-8,90020,-10,-11,-12,-13,-14,-15,160003,-17,50
10003,-2,30004,40007,-5,60003,-7,-8,90020,-10,-11,-12,-13,-14,150003,160003,-17,50
-1,-2,-3,40007,-5,60003,-7,-8,90020,-10,-11,-12,-13,-14,150004,-16,-17,50
10003,-2,-3,40007,-5,60007,-7,-8,90020,-10,-11,-12,-13,-14,150005,160003,-17,50
-1,-2,-3,40007,-5,-6,-7,-8,90020,-10,-11,-12,-13,-14,150004,-16,170003,50
10003,-2,-3,40007,-5,60012,-7,-8,90020,-10,-11,-12,-13,-14,-15,-16,-17,50
10003,-2,-3,40007,-5,60003,-7,-8,90020,-10,-11,-12,-13,-14,-15,-16,-17,50
10003,-2,30016,40007,-5,60003,-7,-8,90020,-10,-11,-12,-13,-14,-15,-16,-17,50
10003,-2,-3,40007,-5,60003,-7,-8,90020,-10,-11,-12,-13,-14,-15,-16,-17,50
10004,20020,30016,40007,-5,60008,-7,-8,90020,-10,-11,-12,-13,-14,150005,-16,-17,50
10003,-2,-3,40007,-5,60005,-7,-8,90020,-10,-11,-12,-13,-14,-15,-16,-17,50
10003,-2,-3,40007,-5,60003,-7,-8,90020,-10,-11,-12,-13,-14,-15,-16,-17,50
10003,20011,30016,40007,-5,60003,-7,-8,90020,-10,-11,-12,-13,-14,-15,160003,-17,50
-1,-2,-3,40007,-5,60003,-7,80004,90020,-10,-11,-12,-13,-14,-15,-16,-17,50
10003,-2,30013,40007,-5,60003,-7,-8,90020,-10,-11,-12,-13,-14,150003,-16,-17,50
-1,20019,30013,-4,-5,-6,-7,80004,-9,-10,-11,-12,-13,-14,-15,-16,170004,52
-1,20019,30013,-4,-5,-6,-7,-8,-9,-10,-11,-12,-13,-14,-15,-16,-17,52
-1,20019,30013,-4,-5,-6,-7,80004,-9,-10,-11,-12,-13,-14,150005,-16,-17,52
10004,20019,-3,-4,-5,-6,-7,80004,-9,-10,-11,-12,-13,-14,-15,-16,170004,52
-1,20019,30013,-4,-5,-6,-7,-8,-9,-10,-11,-12,-13,-14,150005,-16,170003,52
-1,20019,30013,-4,-5,60007,-7,80003,-9,-10,-11,-12,-13,-14,-15,-16,170004,52
10003,20019,30013,-4,-5,-6,-7,-8,-9,-10,-11,-12,-13,-14,150005,-16,-17,52
-1,20019,30013,-4,-5,60003,-7,-8,-9,-10,-11,-12,-13,-14,-15,-16,170004,52
-1,20019,30013,-4,-5,60007,-7,-8,-9,-10,-11,-12,-13,-14,-15,-16,-17,52
-1,20019,30010,-4,-5,-6,-7,-8,-9,-10,-11,-12,-13,-14,-15,160003,-17,52
-1,20019,30013,-4,-5,60005,-7,-8,-9,-10,-11,-12,-13,-14,-15,-16,-17,52
-1,20011,30008,-4,-5,60003,-7,-8,-9,-10,-11,-12,-13,-14,-15,-16,-17,52
-1,20019,30007,-4,-5,-6,-7,-8,-9,-10,-11,-12,-13,-14,-15,-16,170004,52
-1,20019,30013,-4,-5,60009,-7,-8,-9,-10,-11,-12,-13,-14,-15,-16,-17,52
-1,20019,30013,-4,-5,-6,-7,-8,-9,-10,-11,-12,-13,-14,-15,-16,-17,52
10004,20012,30013,-4,-5,-6,-7,80004,-9,-10,-11,-12,-13,-14,-15,-16,-17,52
-1,20014,30013,-4,-5,60011,-7,-8,-9,-10,-11,-12,-13,-14,-15,-16,-17,52
-1,20019,30013,-4,-5,-6,-7,80003,-9,-10,-11,-12,-13,-14,150005,-16,170003,52
10004,20019,30013,-4,-5,-6,-7,-8,-9,-10,-11,-12,-13,-14,-15,160003,-17,52
-1,20006,30016,-4,-5,60009,-7,-8,-9,-10,-11,-12,-13,-14,-15,-16,-17,52
-1,20019,30013,-4,-5,-6,-7,-8,-9,-10,-11,-12,-13,-14,-15,-16,-17,52
-1,20019,30008,-4,-5,60010,-7,-8,-9,-10,-11,-12,-13,-14,150003,-16,170004,52
-1,20019,30013,-4,-5,60003,-7,-8,-9,-10,-11,-12,-13,-14,-15,160003,-17,52
10004,20019,30013,-4,-5,-6,-7,-8,-9,-10,-11,-12,-13,-14,150004,-16,-17,52
-1,20019,30013,-4,-5,-6,-7,-8,-9,-10,-11,-12,-13,-14,-15,-16,170004,52
10003,20021,30013,-4,-5,60008,-7,80003,-9,-10,-11,-12,-13,-14,150005,-16,-17,52
-1,20019,30013,-4,-5,-6,-7,-8,-9,-10,-11,-12,-13,-14,-15,-16,-17,52
-1,20019,30013,-4,-5,60007,-7,-8,-9,-10,-11,-12,-13,-14,-15,-16,-17,52
10004,20019,30013,-4,-5,-6,-7,-8,-9,-10,-11,-12,-13,-14,-15,160003,-17,52
-1,20019,30013,-4,-5,60009,-7,-8,-9,-10,-11,-12,-13,-14,150003,-16,170003,52
10004,20019,30013,-4,-5,60003,-7,80004,-9,-10,-11,-12,-13,-14,150003,-16,-17,52
-1,20019,30013,-4,-5,-6,-7,-8,-9,-10,-11,-12,-13,-14,-15,-16,-17,52
10004,20019,30013,-4,-5,60008,-7,-8,-9,-10,-11,-12,-13,-14,-15,-16,-17,52
10003,20019,30016,-4,-5,-6,-7,80004,-9,-10,-11,-12,-13,-14,-15,-16,-17,52
-1,20019,30013,-4,-5,-6,-7,-8,-9,-10,-11,-12,-13,-14,-15,-16,170003,52
-1,20019,30013,-4,-5,-6,-7,80003,-9,-10,-11,-12,-13,-14,150004,-16,-17,52
-1,20019,30013,-4,-5,-6,-7,-8,-9,-10,-11,-12,-13,-14,150005,-16,-17,52
-1,20019,30013,-4,-5,-6,-7,-8,-9,-10,-11,-12,-13,-14,-15,-16,-17,52
-1,20019,30008,-4,-5,60003,-7,-8,-9,-10,-11,-12,-13,-14,-15,-16,-17,52
-1,20019,30004,-4,-5,60005,-7,-8,-9,-10,-11,-12,-13,-14,-15,-16,-17,52
-1,20019,30013,-4,-5,-6,-7,-8,-9,-10,-11,-12,-13,-14,150004,160003,-17,52
10004,20019,30013,-4,-5,60009,-7,-8,-9,-10,-11,-12,-13,-14,-15,-16,-17,52
10003,20019,30013,-4,-5,60007,-7,-8,-9,-10,-11,-12,-13,-14,150004,-16,-17,52
-1,20019,30013,-4,-5,-6,-7,-8,-9,-10,-11,-12,-13,-14,-15,160003,-17,52
-1,20018,30013,-4,-5,60008,-7,-8,-9,-10,-11,-12,-13,-14,-15,-16,-17,52
-1,20019,30013,-4,-5,60007,-7,-8,-9,-10,-11,-12,-13,-14,-15,-16,-17,52
10003,20019,30013,-4,-5,60009,-7,-8,-9,-10,-11,-12,-13,-14,-15,-16,170003,52
-1,20019,30003,-4,-5,-6,-7,-8,-9,-10,-11,-12,-13,-14,-15,-16,-17,52
-1,20019,30005,-4,-5,-6,-7,-8,-9,-10,-11,-12,-13,-14,-15,-16,-17,52
-1,20019,30013,-4,-5,-6,-7,-8,-9,-10,-11,-12,-13,-14,150004,-16,170004,52
